;-----------------------------------------------------------------------------
; strings.lst: list of all resource names, classes & representation types
; provided by XmHTML.
;
; Words beginning with an uppercase character are translated to both a
; resource class (prefixed with XmC) and a representation type (prefixed
; with XmR). Words that begin with a lowercase character are translated to
; resource names (prefixed with XmN).
;
;-----------------------------------------------------------------------------
; Process this file with: mkStrings XmHTML [c|h] < strings.lst > output.[ch]
;-----------------------------------------------------------------------------
; $Source: /cvs/archive/XmHTML/tools/strings.lst,v $
;
; Creation date:		Somewhere in 1997
; Last modification: 	$Date: 1999/02/04 02:19:55 $
; By:					$Author: koen $
; Current State:		$State: Exp $
; Revision:				$Revision: 1.1.7.1 $
;-----------------------------------------------------------------------------
; Copyright (C) 1994-1997 by Ripley Software Development 
; All Rights Reserved
;
; This file is part of the XmHTML Widget Library
;
; Distributed under the GNU Library General Public License.
;-----------------------------------------------------------------------------
; Do not remove the empty line, it's there with a purpose.

AnchorUnderlineType
AnchorVisitedProc
BackingStore
BalloonStyle
BorderSize
ClientData
CornerStyle
ConversionMode
DecodeGIFProc
EnableMode
EventProc
HTMLWarningMode
ImageProc
LoadType
MaxImageColors
PerfectColors
PopdownDelay
PopupDelay
ProgressiveEndProc
ProgressiveInitialDelay
ProgressiveMaximumDelay
ProgressiveMinimumDelay
ProgressiveReadProc
ScreenGamma
ScriptProc
TabWidth
TopLine
Transparent
XResolution
YResolution
alphaChannelProcessing
anchorActivatedBackground
anchorActivatedForeground
anchorButtons
anchorCursor
anchorDisplayCursor
anchorForeground
anchorTargetForeground
anchorTargetUnderlineType
anchorTrackCallback
anchorUnderlineType
anchorVisitedForeground
anchorVisitedProc
anchorVisitedUnderlineType
backingStore
backPageNumber
balloonStyle
borderSize
bodyImage
charset
clientData
cornerStyle
currentPageNumber
debugDisableWarnings
debugEnableFullOutput
debugFilePrefix
debugLevels
debugNoAnimationLoopCount
debugSaveClipmasks
decodeGIFProc
documentCallback
enableBadHTMLWarnings
enableBodyColors
enableBodyImages
enableDocumentColors
enableDocumentFonts
enableFormColors
enableIconEntities
enableOutlining
eventCallback
eventProc
firstPageNumber
fontFamily
fontFamilyFixed
fontSizeFixedList
fontSizeList
formCallback
frameCallback
freezeAnimations
iconAlignment
imageEnable
imageMapToPalette
imagePalette
imageProc
imageRGBConversion
imagemapBoundingBoxForeground
imagemapCallback
imagemapDrawBoundingBoxes
lastPageNumber
linkCallback
loadType
maxImageColors
mimeType
motionTrackCallback
objectCallback
pageCallback
parserCallback
parserIsProgressive
perfectColors
popdownDelay
popupDelay
progressiveEndProc
progressiveInitialDelay
progressiveMaximumDelay
progressiveMinimumDelay
progressiveReadProc
retainSource
screenGamma
scriptProc
smoothScrolling
strictHTMLChecking
tabWidth
topLine
transparent
uncompressCommand
xResolution
yResolution
